{
    "type": "application",
    "source-directories": [
        "src"
    ],
    "elm-version": "0.19.1",
    "dependencies": {
        "direct": {
            "avh4/elm-color": "1.0.0",
            "cuducos/elm-format-number": "8.1.4",
            "elm/browser": "1.0.2",
            "elm/core": "1.0.5",
            "elm/html": "1.0.0",
            "elm/http": "2.0.0",
            "elm/json": "1.1.3",
            "elm/random": "1.0.0",
            "elm-community/string-extra": "4.0.1",
            "elm-explorations/webgl": "1.1.2",
            "ianmackenzie/elm-3d-camera": "3.1.0",
            "ianmackenzie/elm-3d-scene": "1.0.1",
            "ianmackenzie/elm-geometry": "3.9.0",
            "ianmackenzie/elm-triangular-mesh": "1.1.0",
            "ianmackenzie/elm-units": "2.7.0",
            "mdgriffith/elm-ui": "1.1.8",
            "myrho/elm-round": "1.0.4",
            "ohanhi/keyboard": "2.0.1",
            "w0rm/elm-obj-file": "1.0.0",
            "w0rm/elm-physics": "5.1.1"
        },
        "indirect": {
            "elm/bytes": "1.0.8",
            "elm/file": "1.0.5",
            "elm/regex": "1.0.0",
            "elm/time": "1.0.0",
            "elm/url": "1.0.0",
            "elm/virtual-dom": "1.0.2",
            "elm-explorations/linear-algebra": "1.0.3",
            "ianmackenzie/elm-1d-parameter": "1.0.1",
            "ianmackenzie/elm-float-extra": "1.1.0",
            "ianmackenzie/elm-geometry-linear-algebra-interop": "2.0.2",
            "ianmackenzie/elm-interval": "2.0.0",
            "ianmackenzie/elm-units-interval": "2.1.0"
        }
    },
    "test-dependencies": {
        "direct": {},
        "indirect": {}
    }
}
